\,Service Fee,75,75,75,75,75,75,\
\,"Single Family Home (under 5,000 sq. ft.)",315,585,465,860,555,1025,\
\,"Condo (under 5,000 sq. ft.)",275,510,410,760,490,905,\
\,"SFH (5,000 - 5,999 sq. ft.)",630,1165,N/A,N/A,N/A,N/A,\
\,"SFH (over 5,999 sq. ft.) under 10 years",630,1165,N/A,N/A,N/A,N/A,\
\,"SFH (over 5,999 sq. ft.) over 10 years",730,1350,N/A,N/A,N/A,N/A,\
\,Guest House (under 750 sq. ft.),160,295,160,295,160,295,\
\,Guest House with Options (under 750 sq. ft.),N/A,N/A,235,435,280,520,\
\,Guest House (over 750 sq. ft.),235,435,235,435,235,435,\
\,Guest House with Options (over 750 sq. ft.),N/A,N/A,350,650,415,770,\
\,2-plex,440,880,N/A,N/A,N/A,N/A,\
\,3-plex,660,1320,N/A,N/A,N/A,N/A,\
\,4-plex,880,1760,N/A,N/A,N/A,N/A,\
\,5-plex,1105,2210,N/A,N/A,N/A,N/A,\
\,6-plex,1325,2650,N/A,N/A,N/A,N/A,\
\,7-plex,1545,3090,N/A,N/A,N/A,N/A,\
\,8-plex,1765,3530,N/A,N/A,N/A,N/A,\
\,9-plex,1985,3970,N/A,N/A,N/A,N/A,\
\,10-plex,2205,4410,N/A,N/A,N/A,N/A,\
