\,Service Fee,75,75,75,75,75,75,\
\,"Single Family Home (under 5,000 sq. ft.)",405,750,515,955,580,1075,\
\,"Condo (under 5,000 sq. ft.)",355,655,455,840,510,945,\
\,"SFH (5,000 - 5,999 sq. ft.)",810,1500,N/A,N/A,N/A,N/A,\
\,"SFH (over 5,999 sq. ft.) under 10 years",810,1500,N/A,N/A,N/A,N/A,\
\,"SFH (over 5,999 sq. ft.) over 10 years",910,1685,N/A,N/A,N/A,N/A,\
\,Guest House (under 750 sq. ft.),205,380,205,380,205,380,\
\,Guest House with Options (under 750 sq. ft.),N/A,N/A,260,480,290,535,\
\,Guest House (over 750 sq. ft.),305,565,305,565,305,565,\
\,Guest House with Options (over 750 sq. ft.),N/A,N/A,385,710,435,805,\
\,2-plex,565,1130,N/A,N/A,N/A,N/A,\
\,3-plex,850,1700,N/A,N/A,N/A,N/A,\
\,4-plex,1135,2270,N/A,N/A,N/A,N/A,\
\,5-plex,1420,2840,N/A,N/A,N/A,N/A,\
\,6-plex,1700,3400,N/A,N/A,N/A,N/A,\
\,7-plex,1985,3970,N/A,N/A,N/A,N/A,\
\,8-plex,2270,4540,N/A,N/A,N/A,N/A,\
\,9-plex,2550,5100,N/A,N/A,N/A,N/A,\
\,10-plex,2835,5670,N/A,N/A,N/A,N/A,\
