$,Sellers Basic,Inc.,Inc.,Inc.,Inc.,Inc.,Inc.,Inc.,Inc.,Inc.,Inc. ,$
$,Sellers HG/AC/Duct Package    ,70,105,70,105,70,70,70,70,70,70,$
$,Sellers First Class Upgrade,Inc.,Inc.,Inc.,Inc.,Inc.,Inc.,Inc.,Inc.,Inc.,Inc.,$
